An introduction to tidy data and the tidyverse
…
What if we wanted to know the proportion correct for each item by gender?

td %>% 
  group_by(item, gender) %>% 
  summarize(prop = mean(score))

## Source: local data frame [36 x 3]
## Groups: item [?]
## 
##     item gender       prop
##    <chr>  <chr>      <dbl>
## 1      1      F 1.00000000
## 2      1      M 1.00000000
## 3     10      F 0.72222222
## 4     10      M 0.64705882
## 5     11      F 0.05555556
## 6     11      M 0.64705882
## 7     12      F 0.00000000
## 8     12      M 0.35294118
## 9     13      F 0.22222222
## 10    13      M 0.17647059
## # ... with 26 more rows
…
If you're successful, try to also calculate the percent correct.

    Calculate Raw Scores

    Modify the prior code to:

group_by stu_name (rather than item)

sum score (rather than average it with mean)

td %>% 
  group_by(stu_name) %>% 
  summarize(raw_score = sum(score))

## # A tibble: 35 × 2
##    stu_name raw_score
##       <chr>     <int>
## 1      Adam         7
## 2      Anne        10
## 3    Audrey        11
## 4   Barbara         6
## 5      Bert         8
## 6     Betty         9
## 7    Blaise        13
## 8    Brenda        10
## 9   Britton         8
## 10    Carol         6
## # ... with 25 more rows

    Calculate percent correct

    (many correct answers, this is just one)

total_poss <- 18

td %>% 
  group_by(stu_name) %>% 
  summarize(raw_score = sum(score),
            pct_correct = raw_score / total_poss)

## # A tibble: 35 × 3
##    stu_name raw_score pct_correct
##       <chr>     <int>       <dbl>
## 1      Adam         7   0.3888889
## 2      Anne        10   0.5555556
## 3    Audrey        11   0.6111111
## 4   Barbara         6   0.3333333
## 5      Bert         8   0.4444444
## 6     Betty         9   0.5000000
## 7    Blaise        13   0.7222222
## 8    Brenda        10   0.5555556
## 9   Britton         8   0.4444444
## 10    Carol         6   0.3333333
## # ... with 25 more rows
…
Identify the variables (not the column names, the variables)

Sketch how these data would look  in a tidy form (at least mentally)

What would be the first step in tidying these data? (use View(iris) to see the full dataset easier). 

Work with a partner to try to conduct the first step in tidying the data

    Step 1: Gather the sepal and petal columns

iris %>% 
  tbl_df() %>% 
  gather(flower_part, measurement, -Species)

## # A tibble: 600 × 3
##    Species  flower_part measurement
##     <fctr>        <chr>       <dbl>
## 1   setosa Sepal.Length         5.1
## 2   setosa Sepal.Length         4.9
## 3   setosa Sepal.Length         4.7
## 4   setosa Sepal.Length         4.6
## 5   setosa Sepal.Length         5.0
## 6   setosa Sepal.Length         5.4
## 7   setosa Sepal.Length         4.6
## 8   setosa Sepal.Length         5.0
## 9   setosa Sepal.Length         4.4
## 10  setosa Sepal.Length         4.9
## # ... with 590 more rows
…
    What needs to happen next? Are the data tidy?

Work with a partner to figure out the next step, and try to do it.

Hint: Use "\\." as your separator rather than just ".". I'll explain why momentarily.

    Step 2: Separate the flower_part column

iris %>% 
  tbl_df() %>% 
  gather(flower_part, measurement, -Species) %>% 
  separate(flower_part, c("flower_part", "measure_of"), sep = "\\.")

## # A tibble: 600 × 4
##    Species flower_part measure_of measurement
## *   <fctr>       <chr>      <chr>       <dbl>
## 1   setosa       Sepal     Length         5.1
## 2   setosa       Sepal     Length         4.9
## 3   setosa       Sepal     Length         4.7
## 4   setosa       Sepal     Length         4.6
## 5   setosa       Sepal     Length         5.0
## 6   setosa       Sepal     Length         5.4
## 7   setosa       Sepal     Length         4.6
## 8   setosa       Sepal     Length         5.0
## 9   setosa       Sepal     Length         4.4
## 10  setosa       Sepal     Length         4.9
## # ... with 590 more rows
…
