…
```r
td %>% 
  group_by(item, gender) %>% 
  summarize(prop = mean(score))
```

```
## Source: local data frame [36 x 3]
## Groups: item [?]
## 
##     item gender       prop
##    <chr>  <chr>      <dbl>
## 1      1      F 1.00000000
## 2      1      M 1.00000000
## 3     10      F 0.72222222
## 4     10      M 0.64705882
## 5     11      F 0.05555556
## 6     11      M 0.64705882
## 7     12      F 0.00000000
## 8     12      M 0.35294118
## 9     13      F 0.22222222
## 10    13      M 0.17647059
## # ... with 26 more rows
```
…
----
## Calculate Raw Scores
Modify the prior to:
* `group_by` student name
* `sum` score (rather than average it with `mean`)


```r
td %>% 
  group_by(stu_name) %>% 
  summarize(raw_score = sum(score))
```

```
## # A tibble: 35 × 2
##    stu_name raw_score
##       <chr>     <int>
## 1      Adam         7
## 2      Anne        10
## 3    Audrey        11
## 4   Barbara         6
## 5      Bert         8
## 6     Betty         9
## 7    Blaise        13
## 8    Brenda        10
## 9   Britton         8
## 10    Carol         6
## # ... with 25 more rows
```
…
Work with a partner to try to conduct the first step in tidying the data

----
## Step 1: Gather the sepal and petal columns


```r
iris %>% 
  tbl_df() %>% 
  gather(flower_part, measurement, -Species)
```

```
## # A tibble: 600 × 3
##    Species  flower_part measurement
##     <fctr>        <chr>       <dbl>
## 1   setosa Sepal.Length         5.1
## 2   setosa Sepal.Length         4.9
## 3   setosa Sepal.Length         4.7
## 4   setosa Sepal.Length         4.6
## 5   setosa Sepal.Length         5.0
## 6   setosa Sepal.Length         5.4
## 7   setosa Sepal.Length         4.6
## 8   setosa Sepal.Length         5.0
## 9   setosa Sepal.Length         4.4
## 10  setosa Sepal.Length         4.9
## # ... with 590 more rows
```
…
----
## Step 2: Separate the flower_part column


```r
iris %>% 
  tbl_df() %>% 
  gather(flower_part, measurement, -Species) %>% 
  separate(flower_part, c("flower_part", "measure_of"), sep = "\\.")
```

```
## # A tibble: 600 × 4
##    Species flower_part measure_of measurement
## *   <fctr>       <chr>      <chr>       <dbl>
## 1   setosa       Sepal     Length         5.1
## 2   setosa       Sepal     Length         4.9
## 3   setosa       Sepal     Length         4.7
## 4   setosa       Sepal     Length         4.6
## 5   setosa       Sepal     Length         5.0
## 6   setosa       Sepal     Length         5.4
## 7   setosa       Sepal     Length         4.6
## 8   setosa       Sepal     Length         5.0
## 9   setosa       Sepal     Length         4.4
## 10  setosa       Sepal     Length         4.9
## # ... with 590 more rows
```
…
